numb,Country,Gender Development Index (GDI),Human Development Index (HDI),Human Development Index (Female),Human Development Index (Male),Life Expectancy at Birth (Female),Life Expectancy at Birth (Male),Expected Years of Education (Female),Expected Years of Education (Male),Mean Years of Education (Female),Mean Years of Education (Male),Estimated Gross National Income per Capita (Female),Estimated Gross National Income per Capita (Male),Gender Inequality Index (GII),Population with Secondary Education (Female),Population with Secondary Education (Male),Percent Representation in Parliament,Labour Force Participation Rate (Female),Labour Force Participation Rate (Male)
1,Norway,0.996,0.944,0.94,0.944,83.6,79.5,18.2,16.8,12.7,12.5,57140,72825,0.067,97.4,96.7,39.6,61.2,68.7
2,Australia,0.976,0.935,0.922,0.945,84.5,80.3,20.7,19.7,13.1,12.9,33688,50914,0.11,94.3,94.6,30.5,58.8,71.8
3,Switzerland,0.95,0.93,0.898,0.945,85,80.8,15.7,15.9,11.5,13.1,44132,69077,0.028,95,96.6,28.5,61.8,74.9
4,Denmark,0.977,0.923,0.912,0.934,82.2,78.3,19.3,18.1,12.8,12.7,36439,51727,0.048,95.5,96.6,38,58.7,66.4
5,Netherlands,0.947,0.922,0.893,0.943,83.3,79.7,18,17.9,11.6,12.2,29500,61641,0.062,87.7,90.5,36.9,58.5,70.6
6,Germany,0.963,0.916,0.901,0.936,83.3,78.5,16.3,16.6,12.9,13.8,34886,53290,0.041,96.3,97,36.9,53.6,66.4
6,Ireland,0.973,0.916,0.901,0.926,83,78.8,18.5,18.7,12.3,12,30104,49166,0.113,80.5,78.6,19.9,53.1,68.1
8,United States,0.995,0.915,0.911,0.916,81.4,76.7,17.2,15.7,13,12.9,43054,63158,0.28,95.1,94.8,19.4,56.3,68.9
9,Canada,0.982,0.913,0.904,0.921,84,80,16.3,15.5,13.1,13,33587,50853,0.129,100,100,28.2,61.6,71
9,New Zealand,0.961,0.913,0.894,0.93,83.6,80,20,18.3,12.5,12.6,24309,41372,0.157,95,95.3,31.4,62,73.8
11,Singapore,0.985,0.912,0.898,0.912,86,79.9,15.5,15.3,10.1,10.9,59994,93699,0.088,74.1,81,25.3,58.8,77.2
14,Sweden,0.999,0.907,0.906,0.906,83.9,80.4,16.6,15.1,12.2,12,40222,51084,0.055,86.5,87.3,43.6,60.3,67.9
14,United Kingdom,0.965,0.907,0.888,0.92,82.6,78.7,16.6,15.8,12.9,13.2,27259,51628,0.177,99.8,99.9,23.5,55.7,68.7
16,Iceland,0.975,0.899,0.886,0.909,84,81,20.1,17.9,10.8,10.4,28792,41486,0.087,91,91.6,41.3,70.5,77.4
17,Korea (Republic of),0.93,0.898,0.861,0.926,85,78.5,16,17.7,11.2,12.7,21896,46018,0.125,77,89.1,16.3,50.1,72.1
18,Israel,0.971,0.894,0.879,0.905,84.1,80.5,16.5,15.5,12.5,12.6,22451,39064,0.101,84.4,87.3,22.5,57.9,69.1
19,Luxembourg,0.971,0.892,0.877,0.903,83.9,79.3,14,13.7,11.3,12.1,47723,69800,0.1,100,100,28.3,50.7,64.6
20,Japan,0.961,0.891,0.87,0.905,86.7,80.2,15.2,15.5,11.3,11.7,24975,49541,0.133,87,85.8,11.6,48.8,70.4
21,Belgium,0.975,0.89,0.872,0.895,83.2,78.3,16.7,16,10.6,11.1,31879,50845,0.063,77.5,82.9,42.4,47.5,59.3
22,France,0.987,0.888,0.881,0.893,85.1,79.2,16.4,15.6,11,11.3,31073,45497,0.088,78,83.2,25.7,50.7,61.6
23,Austria,0.943,0.885,0.856,0.909,83.8,78.8,16.1,15.4,9.9,11.9,29598,58826,0.053,100,100,30.3,54.6,67.7
24,Finland,0.996,0.883,0.879,0.882,83.6,78,17.7,16.5,10.2,10.2,31644,45994,0.075,100,100,42.5,55.7,64
25,Slovenia,0.996,0.88,0.877,0.881,83.4,77.3,17.7,16,11.8,12,22180,33593,0.016,95.8,98,27.7,52.3,63.2
26,Spain,0.975,0.876,0.863,0.885,85.3,79.8,17.7,17,9.4,9.8,24059,40221,0.095,66.8,73.1,38,52.5,65.8
27,Italy,0.964,0.873,0.851,0.883,85.5,80.6,16.5,15.6,9.5,10.2,22526,44148,0.068,71.2,80.5,30.1,39.6,59.5
28,Czech Republic,0.98,0.87,0.859,0.877,81.5,75.7,16.9,15.8,12.1,12.5,19929,33604,0.091,99.9,99.7,18.9,51.1,68.3
29,Greece,0.961,0.865,0.844,0.879,83.8,78,17.7,17.6,9.8,10.5,17288,31952,0.146,59.5,67,21,44.2,62.5
30,Estonia,1.03,0.861,0.872,0.847,81.3,72,17.4,15.6,12.7,12.2,20854,30254,0.164,100,100,19.8,56.2,68.9
32,Cyprus,0.971,0.85,0.836,0.861,82.4,78,14.2,13.8,11.4,11.8,22613,34400,0.124,76,81.7,12.5,56,71.1
32,Qatar,0.998,0.85,0.853,0.854,79.9,77.3,14,13.9,10.4,8.8,55123,143979,0.524,66.7,59,0,50.8,95.5
35,Slovakia,0.999,0.844,0.841,0.842,79.9,72.5,15.7,14.5,12.3,12.2,19903,32122,0.164,99.1,99.5,18.7,51.1,68.6
36,Poland,1.007,0.843,0.844,0.839,81.4,73.4,16.3,14.7,11.7,11.9,18423,28271,0.138,79.4,85.5,22.1,48.9,64.9
37,Lithuania,1.03,0.839,0.851,0.827,78.9,67.7,16.9,15.9,12.3,12.5,20955,28656,0.125,89.1,94.3,23.4,55.8,67.3
37,Malta,0.937,0.839,0.806,0.861,82.2,78.8,14.8,14,9.9,10.8,16435,39432,0.227,68.6,78.2,13,37.9,66.3
39,Saudi Arabia,0.901,0.837,0.778,0.864,75.7,73,16.6,16.1,7.8,9.3,20094,77044,0.284,60.5,70.3,19.9,20.2,78.3
40,Argentina,0.982,0.836,0.819,0.834,80.1,72.4,19.1,16.8,9.8,9.8,14202,30237,0.376,56.3,57.6,36.8,47.5,75
41,United Arab Emirates,0.954,0.835,0.796,0.835,78.5,76.3,13.9,12.9,9.9,8.5,22391,77300,0.232,73.1,61.2,17.5,46.5,92
42,Chile,0.967,0.832,0.815,0.843,84.5,78.6,15.5,15,9.7,9.9,14732,27992,0.338,73.3,76.4,15.8,49.2,74.8
43,Portugal,0.985,0.83,0.823,0.836,83.8,77.9,16.5,16.1,8.1,8.4,21259,30543,0.111,47.7,48.2,31.3,54.9,66.2
44,Hungary,0.976,0.828,0.818,0.838,78.7,71.5,15.7,15.1,11.3,12.2,17443,28960,0.209,97.9,98.7,10.1,44.8,60
45,Bahrain,0.94,0.824,0.789,0.839,77.6,75.8,15.1,13.7,9.1,9.6,20038,49890,0.265,56.7,51.4,15,39.2,86.9
46,Latvia,1.029,0.819,0.829,0.805,78.9,69.1,15.9,14.6,11.7,11.2,18437,26845,0.167,98.9,99,18,54.9,67.6
47,Croatia,0.987,0.818,0.812,0.823,80.6,74,15.4,14.2,10.5,11.6,16200,22853,0.149,85,93.6,25.8,44.7,58.4
48,Kuwait,0.972,0.816,0.793,0.816,75.8,73.5,15.2,14.2,7.3,7.1,42292,111988,0.387,55.6,56.3,1.5,43.6,83.1
49,Montenegro,0.954,0.802,0.782,0.819,78.4,74.1,15.5,14.8,10.5,11.8,11106,18094,0.171,84.2,94.7,17.3,43,57.3
50,Belarus,1.021,0.798,0.806,0.789,77.2,65.5,16.2,15.1,11.9,12.1,12922,21010,0.151,87,92.2,30.1,50.1,63.1
50,Russian Federation,1.019,0.798,0.804,0.789,75.8,64.4,15.1,14.3,11.9,12,17269,28287,0.276,89.6,92.5,14.5,57.1,71.7
52,Oman,0.909,0.793,0.741,0.815,79.2,75.1,13.9,13.5,7,8.5,14709,46400,0.275,47.2,57.1,9.6,29,82.6
52,Romania,0.989,0.793,0.787,0.796,78.3,71.2,14.6,13.8,10.3,11.1,15250,21117,0.333,86.1,92,12,48.7,64.9
52,Uruguay,1.018,0.793,0.797,0.783,80.6,73.5,16.6,14.4,8.7,8.2,14721,24166,0.313,54.4,50.3,11.5,55.6,76.8
56,Kazakhstan,1.002,0.788,0.787,0.785,74.1,64.6,15.4,14.7,11.3,11.5,15408,26746,0.267,95.3,98.8,20.1,67.7,77.9
57,Barbados,1.018,0.785,0.791,0.777,78,73.2,17.2,13.8,10.6,10.2,10245,14739,0.357,89.5,87.7,19.6,65.9,76.6
59,Bulgaria,0.991,0.782,0.777,0.784,77.7,70.8,14.6,14.1,10.6,10.4,12448,18926,0.212,93,95.7,20.4,47.9,59
60,Panama,0.996,0.78,0.776,0.779,80.7,74.6,13.8,12.8,9.6,9.1,13699,22597,0.454,54,49.9,19.3,49,81.8
62,Malaysia,0.947,0.779,0.753,0.795,77.1,72.4,12.7,12.7,9.4,10.1,15635,30320,0.209,65.1,71.3,14.2,44.4,75.5
63,Mauritius,0.95,0.777,0.752,0.792,78,70.9,15.9,15.2,8,9.1,10541,24581,0.419,49.4,58,11.6,43.6,74.2
64,Trinidad and Tobago,0.985,0.772,0.763,0.774,74,67,12.5,12.1,10.7,10.9,19669,32656,0.371,59.7,60.9,24.7,53,75.5
66,Serbia,0.966,0.771,0.757,0.784,77.7,72.1,14.9,13.9,9.8,11.2,9697,14799,0.176,58.4,73.6,34,44.5,60.9
67,Cuba,0.954,0.769,0.747,0.783,81.5,77.4,14.4,13.3,11.4,11.6,4912,9665,0.356,74.3,78.8,48.9,43.4,70
67,Lebanon,0.899,0.769,0.718,0.8,81.3,77.6,13.6,13.9,7.6,8.2,7334,25391,0.385,53,55.4,3.1,23.3,70.9
69,Costa Rica,0.974,0.766,0.753,0.774,81.9,77,14.3,13.4,8.4,8.3,9680,17033,0.349,50.7,50.5,33.3,46.6,79
69,Iran (Islamic Republic of),0.858,0.766,0.689,0.804,76.5,74.3,15,15.2,7.7,8.6,4828,25924,0.515,62.2,67.6,3.1,16.6,73.6
71,Venezuela (Bolivarian Republic of),1.03,0.762,0.772,0.749,78.5,70.2,15.3,13.1,9.2,8.6,12458,19840,0.476,56.6,50.8,17,51.1,79.2
72,Turkey,0.902,0.761,0.716,0.793,78.5,72,14,15.1,6.7,8.5,10024,27645,0.359,39,60,14.4,29.4,70.8
73,Sri Lanka,0.948,0.757,0.73,0.769,78.2,71.5,14.2,13.3,10.7,10.9,5452,14307,0.37,72.7,76.4,5.8,35.1,76.3
74,Mexico,0.943,0.756,0.731,0.775,79.2,74.4,13.2,12.9,8.2,8.8,10233,22252,0.373,55.7,60.6,37.1,45.1,79.9
75,Brazil,0.997,0.755,0.752,0.754,78.3,70.7,15.6,14.8,7.8,7.5,11393,19084,0.457,54.6,52.4,9.6,59.4,80.8
76,Georgia,0.962,0.754,0.736,0.765,78.4,71.2,14,13.6,12,12.3,4887,9718,0.382,89.7,92.7,11.3,56.5,75.1
78,Azerbaijan,0.942,0.751,0.721,0.766,74,67.7,11.8,12,10.5,11.2,10120,22814,0.303,93.7,97.4,15.6,62.9,69.6
80,Jordan,0.86,0.748,0.674,0.784,75.8,72.4,13.7,13.3,9.3,10.5,3587,18831,0.473,69.5,78.5,11.6,15.6,66.6
81,The former Yugoslav Republic of Macedonia,0.949,0.747,0.726,0.765,77.7,73.1,13.5,13.2,8.7,9.8,8796,14754,0.164,40.2,55.6,33.3,43.1,67.5
81,Ukraine,1.003,0.747,0.747,0.745,75.9,66,15.4,14.9,11.3,11.4,6518,10120,0.286,91.7,95.9,11.8,53.2,66.9
83,Algeria,0.837,0.736,0.637,0.761,77.2,72.5,14.2,13.8,4.8,7.8,3898,22009,0.413,26.7,31,25.7,15.2,72.2
84,Peru,0.947,0.734,0.712,0.752,77.2,71.9,13.1,13,8.5,9.6,8040,13977,0.406,56.3,66.1,22.3,68.2,84.4
85,Albania,0.948,0.733,0.711,0.75,80.4,75.4,11.9,11.8,8.9,9.6,7217,12655,0.217,81.8,87.9,20.7,44.9,65.5
85,Armenia,1.008,0.733,0.734,0.728,78.6,70.9,13.6,11.2,10.8,10.9,6042,10089,0.318,94,95,10.7,54.2,72.6
88,Ecuador,0.98,0.732,0.722,0.737,78.7,73.2,14.5,13.9,7.4,7.6,8487,12723,0.407,40.1,39.4,41.6,54.7,82.7
90,China,0.943,0.727,0.705,0.747,77.3,74.3,13.2,12.9,6.9,8.2,10128,14795,0.191,58.7,71.9,23.6,63.9,78.3
90,Fiji,0.941,0.727,0.699,0.743,73.2,67.2,16,15.5,9.8,10,4274,10592,0.418,64.2,64.5,14,37.5,72
90,Mongolia,1.028,0.727,0.737,0.716,73.9,65.3,15.3,13.9,9.5,9,9029,12462,0.325,85.3,84.1,14.9,56.6,69.3
93,Thailand,1,0.726,0.726,0.726,77.9,71.1,13.9,13.1,7.1,7.5,11820,14888,0.38,35.7,40.8,6.1,64.3,80.7
94,Libya,0.95,0.724,0.699,0.736,74.6,68.9,14.3,13.8,7.7,7,7427,22392,0.134,55.5,41.9,16,30,76.4
96,Tunisia,0.894,0.721,0.671,0.751,77.3,72.5,15,14,5.9,7.8,4748,16159,0.24,32.8,46.1,31.3,25.1,70.9
97,Colombia,0.997,0.72,0.719,0.721,77.7,70.5,13.9,13.2,7.4,7.3,9785,14372,0.429,56.9,55.6,20.9,55.8,79.7
99,Jamaica,0.995,0.719,0.715,0.719,78.1,73.3,13.1,11.6,10,9.4,5820,9059,0.43,74,70.2,16.7,56.1,70.9
100,Tonga,0.967,0.717,0.704,0.727,75.8,69.9,15,14.4,10.7,10.8,3796,6336,0.666,87.5,88.3,0,53.5,74.6
101,Belize,0.958,0.715,0.696,0.727,72.9,67.4,13.9,13.2,10.5,10.5,5034,10198,0.426,76.4,75.8,13.3,49.2,82.3
101,Dominican Republic,0.995,0.715,0.71,0.713,76.7,70.4,13.6,12.6,7.7,7.2,8860,14903,0.477,55.6,53.1,19.1,51.3,78.6
103,Suriname,0.975,0.714,0.702,0.72,74.4,68,13.6,11.8,7.3,8,10241,20970,0.463,44.6,47.1,11.8,40.5,68.8
104,Maldives,0.937,0.706,0.678,0.723,77.8,75.8,12.8,12.5,5.7,6,8531,16073,0.243,27.3,32.7,5.9,56.2,77.5
105,Samoa,0.956,0.702,0.681,0.713,76.8,70.4,13.2,12.5,10.3,10.3,3416,7124,0.457,64.3,60,6.1,23.5,58.4
106,Botswana,0.982,0.698,0.691,0.704,66.8,62.1,12.6,12.4,8.7,9.1,15179,18096,0.48,73.6,77.9,9.5,71.9,81.6
107,Moldova (Republic of),1.003,0.693,0.694,0.692,75.7,67.4,12.2,11.6,11.1,11.3,4599,5915,0.248,93.6,96.6,20.8,37.6,44.2
108,Egypt,0.868,0.69,0.633,0.729,73.4,69,13.3,13.8,5.4,7.7,4928,16049,0.573,43.9,60.6,2.2,23.7,74.8
110,Indonesia,0.927,0.684,0.655,0.706,71,66.9,13.1,12.9,7,8.2,6485,13052,0.494,39.9,49.2,17.1,51.4,84.2
112,Paraguay,0.956,0.679,0.662,0.692,75.1,70.8,12.2,11.7,7.5,7.9,5576,9678,0.472,36.8,43,16.8,55.7,84.8
115,Philippines,0.977,0.668,0.649,0.664,71.8,64.9,11.5,11.1,8.4,7.9,5382,10439,0.42,65.9,63.7,27.1,51.1,79.7
116,El Salvador,0.965,0.666,0.652,0.676,77.4,68.3,12.1,12.4,6.2,6.9,5497,9406,0.427,36.8,43.6,27.4,47.8,79
116,South Africa,0.948,0.666,0.646,0.681,59.3,55.2,13.7,13.4,9.7,10.2,8713,15737,0.407,72.7,75.9,40.7,44.5,60.5
119,Bolivia (Plurinational State of),0.931,0.662,0.637,0.684,70.9,65.9,12.9,13.4,7.5,8.9,4383,7140,0.444,47.6,59.1,51.8,64.2,80.9
120,Kyrgyzstan,0.961,0.655,0.638,0.664,74.6,66.6,12.7,12.3,10.5,10.6,2122,3992,0.353,94.5,96.8,23.3,56,79.5
121,Iraq,0.787,0.654,0.561,0.712,71.7,67.2,8.7,11.4,5.1,7.7,4279,23515,0.539,27.8,50.2,26.5,14.9,69.8
124,Guyana,0.984,0.636,0.626,0.636,68.8,64.2,11.2,9.4,8.9,8,4164,8804,0.515,60.3,47.8,31.3,42.6,80.5
125,Nicaragua,0.96,0.631,0.615,0.64,77.9,71.9,11.8,11.3,6.2,5.8,2967,5979,0.449,39.4,38.3,39.1,47.4,80.3
126,Morocco,0.828,0.628,0.555,0.67,75.1,73,10.6,11.6,3.2,5.3,3222,10573,0.525,20.7,30.2,11,26.5,75.8
126,Namibia,0.981,0.628,0.62,0.632,67.3,62.1,11.4,11.3,6.3,6.1,7672,11267,0.401,33.3,34.4,37.7,54.7,63.7
128,Guatemala,0.949,0.627,0.608,0.641,75.3,68.3,10.2,11,5.5,5.7,5021,8934,0.533,21.9,23.2,13.3,49.3,88.2
129,Tajikistan,0.926,0.624,0.6,0.648,73.2,66.2,10.5,12,9.6,11.2,2014,3017,0.357,95.1,91.2,15.2,58.9,77.1
130,India,0.795,0.609,0.525,0.66,69.5,66.6,11.3,11.8,3.6,7.2,2116,8656,0.563,27,56.6,12.2,27,79.9
131,Honduras,0.944,0.606,0.583,0.618,75.7,70.7,11.6,10.6,5.5,5.4,2365,5508,0.48,28,25.8,25.8,42.8,82.9
132,Bhutan,0.897,0.605,0.572,0.638,69.7,69.2,12.8,12.6,2,4.1,5733,8418,0.457,34,34.5,8.3,66.7,77.2
134,Syrian Arab Republic,0.834,0.594,0.52,0.623,76.5,64,12.2,12.3,5.4,7.4,864,4523,0.533,29.5,40.5,12.4,13.5,72.7
136,Congo,0.922,0.591,0.561,0.609,63.9,60.8,10.9,11.3,4.9,6.5,5165,6859,0.593,39.7,47,11.5,68.5,73
139,Zambia,0.917,0.586,0.558,0.609,62,58.2,13,13.9,5.8,7.3,3019,4452,0.587,25.8,44,12.7,73.1,85.6
140,Ghana,0.885,0.579,0.54,0.61,62.3,60.4,11,12,5.6,7.9,3200,4515,0.554,45.2,64.7,10.9,67.3,71.4
141,Lao People's Democratic Republic,0.896,0.575,0.543,0.606,67.5,64.8,10.1,11,3.9,6.1,4086,5279,..,22.9,37,25,76.3,79.1
142,Bangladesh,0.917,0.57,0.541,0.59,72.9,70.4,10.3,9.7,4.5,5.5,2278,4083,0.503,34.1,41.3,20,57.4,84.1
143,Cambodia,0.89,0.555,0.519,0.584,70.3,66.2,10.3,11.5,3.2,5.4,2526,3393,0.477,9.9,22.9,19,78.8,86.5
145,Kenya,0.913,0.548,0.527,0.577,63.4,59.9,10.7,11.3,5.9,7.3,2255,3270,0.552,25.3,31.4,20.8,62.2,72.4
145,Nepal,0.908,0.548,0.521,0.574,71.1,68.2,12.5,12.2,2.3,4.5,1956,2690,0.489,17.7,38.2,29.5,79.9,87.1
147,Pakistan,0.726,0.538,0.436,0.601,67.2,65.3,7,8.5,3.1,6.2,1450,8100,0.536,19.3,46.1,19.7,24.6,82.9
150,Swaziland,0.879,0.531,0.494,0.561,48.2,49.6,10.9,11.8,7.4,6.8,3894,7235,0.557,21.9,26,14.7,43.9,71.6
151,Tanzania (United Republic of),0.938,0.521,0.504,0.538,66.4,63.5,9,9.3,4.5,5.8,2320,2502,0.547,5.6,9.5,36,88.1,90.2
153,Cameroon,0.879,0.512,0.478,0.544,56.7,54.4,9.5,11.2,5.3,6.7,2266,3341,0.587,21.3,34.9,27.1,63.8,76.8
155,Zimbabwe,0.922,0.509,0.487,0.529,58.9,56.2,10.7,11,6.7,7.7,1387,1850,0.504,48.7,62,35.1,83.2,89.7
156,Mauritania,0.816,0.506,0.446,0.546,64.5,61.6,8.5,8.5,2.7,4.8,1625,5468,0.61,8.3,20.9,22.2,28.7,79.1
160,Yemen,0.739,0.498,0.414,0.56,65.2,62.5,7.7,10.6,1.3,3.8,1595,5412,0.744,8.6,26.7,0.7,25.4,72.2
161,Lesotho,0.953,0.497,0.482,0.505,49.8,49.6,11.7,10.6,6.5,5.2,2613,4017,0.541,21.9,19,26.8,59,73.5
162,Togo,0.831,0.484,0.439,0.527,60.4,58.9,10.9,13.4,3,6.3,1084,1376,0.588,16.1,40.3,17.6,80.6,81.3
163,Rwanda,0.957,0.483,0.472,0.493,67,61.1,10.4,10.2,3.2,4.3,1312,1612,0.4,8,8.8,57.5,86.4,85.3
163,Uganda,0.886,0.483,0.452,0.51,60.3,56.7,9.7,9.9,4.5,6.3,1226,1997,0.538,22.9,33.5,35,75.8,79.2
166,Benin,0.823,0.48,0.431,0.524,61,58.1,9.4,12.7,2.1,4.6,1493,2043,0.614,11.3,27,8.4,67.6,78.3
167,Sudan,0.83,0.479,0.428,0.516,65,62,6.7,7.3,2.5,3.8,1882,5722,0.591,12.1,18.2,23.8,31.3,76
170,Senegal,0.883,0.466,0.436,0.494,68.3,64.5,7.8,8.1,1.8,3.2,1657,2739,0.528,7.2,15.4,42.7,66,88
171,Afghanistan,0.6,0.465,0.328,0.546,61.6,59.2,7.2,11.3,1.2,5.1,506,3227,0.693,5.9,29.8,27.6,15.8,79.5
172,Côte d'Ivoire,0.81,0.462,0.41,0.507,52.4,50.7,7.9,10,3.2,5.3,2146,4157,0.679,14,30.1,9.2,52.4,81.4
173,Malawi,0.907,0.445,0.423,0.467,63.7,61.7,10.8,10.7,3.4,5.2,679,815,0.611,11.1,21.6,16.7,84.6,81.5
174,Ethiopia,0.84,0.442,0.403,0.479,66,62.2,8,9,1.4,3.6,1090,1765,0.558,7.8,18.2,25.5,78.2,89.3
175,Gambia,0.889,0.441,0.414,0.466,61.6,58.9,8.7,8.9,2,3.7,1267,1753,0.622,17.4,31.5,9.4,72.2,82.9
176,Congo (Democratic Republic of the),0.833,0.433,0.393,0.472,60.1,57.2,8.6,10.8,4.5,7.7,597,765,0.673,12.8,32.4,8.2,70.7,73.2
177,Liberia,0.789,0.43,0.387,0.491,61.8,59.9,8.9,12.4,2.6,5.8,678,930,0.651,15.4,39.3,10.7,58.2,64.8
179,Mali,0.776,0.419,0.363,0.468,57.8,58.2,7.5,9.3,1.5,2.7,961,2195,0.677,7.7,15.1,9.5,50.8,81.4
180,Mozambique,0.881,0.416,0.39,0.443,56.5,53.6,8.8,9.8,2.4,4.3,1040,1210,0.591,1.4,6.2,39.6,85.5,82.8
181,Sierra Leone,0.814,0.413,0.37,0.454,51.4,50.4,7.2,10,2.2,4,1582,1981,0.65,10,21.7,12.4,65.7,69
183,Burkina Faso,0.881,0.402,0.376,0.427,59.9,57.3,7.4,8.1,1,1.9,1325,1859,0.631,0.9,3.2,13.3,77.1,90
184,Burundi,0.911,0.4,0.381,0.418,58.7,54.8,9.6,10.7,2.2,3.1,693,825,0.492,5.3,8.3,34.9,83.3,82
185,Chad,0.768,0.392,0.338,0.44,52.7,50.5,5.9,8.9,1,2.9,1657,2513,0.706,1.7,9.9,14.9,64,79.2
187,Central African Republic,0.773,0.35,0.303,0.392,52.6,48.8,5.9,8.6,2.8,5.7,476,689,0.655,10.1,26.7,12.5,72.6,85.1
188,Niger,0.729,0.348,0.287,0.394,62.4,60.6,4.8,6.1,0.8,2,491,1319,0.713,2.4,7.8,13.3,40,89.7
